{
  "required": true,
  "minVersion": "0.8",
  "package": "at.th3dilli.mixin",
  "compatibilityLevel": "JAVA_17",
  "mixins": [
  ],
  "client": [
    "PacketCancellersMixin",
    "PlayerPositionFullPacketMixin",
    "PlayerPositionPositionAndOnGroundPacketMixin"
  ],
  "injectors": {
    "defaultRequire": 1
  }
}
